
# Direct X .x text grammar
# author : Johann Sorel

# PREPROCESS token part
$D : [0-9] ;
$L : ([a-z]|[A-Z]) ;
$S : (-|\+)? ;


# TOKENS used in lexer
# keywords
DEFAULT : {
    ARRAY           : "array" ;
    DWORD           : "dword" ;
    UCHAR           : "uchar" ;
    BINARY          : "binary" ;
    FLOAT           : "float" ;
    ULONGLONG       : "ulonglong" ;
    BINARY_RESOURCE : "binary_resource_RESOURCE" ;
    SDWORD          : "sdword" ;
    UNICODE         : "unicode" ;
    CHAR            : "char" ;
    STRING          : "string" ;
    WORD            : "word" ;
    CSTRING         : "cstring" ;
    SWORD           : "sword" ;
    DOUBLE          : "double" ;
    TEMPLATE        : "template" ;

    WS          : ( |\n|\r|\t)+ ;
    ID          : $L($L|$D|_)* ;
    UID         : (($L|$D)+)(\-($L|$D)*)+ ;
    COMMA       : , ;
    SEMICOLON   : ; ;
    AL          : { ;
    AR          : } ;
    UL          : < ;
    UR          : > ;
    BL          : \[ ;
    BR          : \] ;
    NUMBER      : $S$D+(\.$D+)?((e|E)$S$D+)? ;
    COMMENT     : //[^\n]* ;
    CHARS       : \"[^\"]*\" ;
    ANY         : \.\.\. ;
}

# RULES used in parser
comment   : COMMENT ;
ws        : WS | (WS? COMMENT WS?);
uuid      : UL ws? UID ws? UR ;
type      : DWORD | UCHAR | BINARY | FLOAT | ULONGLONG | BINARY_RESOURCE | SDWORD | UNICODE | CHAR | STRING | WORD | CSTRING | SWORD | DOUBLE ;
array     : BL (ID|NUMBER) BR ;
param     : (ARRAY ws?)? (type|ID) ws? ID array? ws? SEMICOLON ;
constraint: BL ws? (ANY|ID) (ws? uuid)? ws? BR ;
template  : TEMPLATE ws ID ws? AL ws? uuid ws? (param ws?)* (constraint ws?)? AR ;
ref       : AL ws? ID ws? AR ;
value     : NUMBER | CHARS | object | ref;
object    : ID (ws? ID)? ws? AL (ws? (value|SEMICOLON|COMMA))* ws? AR ;
file      : (ws? template)* (ws? object)* ws? ;